Introduction to R
…
background-image: url("img/r-logo.png")
background-position: 95% 5%
background-size: 10%

# Indexing .tiny[(3/3)]

- Logical **tests** can be used to subset using `object[TRUE/FALSE-vector]`

- If either row or column index is empty, **all** are returned

```r
# subset all individuals with body mass larger than 4000
*penguins[penguins$body_mass_g > 4000, ]
## # A tibble: 174 × 8
##    species island    bill_length_mm bill_depth_mm flipper_length_mm body_mass_g
##    <fct>   <fct>              <dbl>         <dbl>             <int>       <int>
##  1 <NA>    <NA>                NA            NA                  NA          NA
##  2 Adelie  Torgersen           39.2          19.6               195        4675
##  3 Adelie  Torgersen           42            20.2               190        4250
##  4 Adelie  Torgersen           34.6          21.1               198        4400
##  5 Adelie  Torgersen           42.5          20.7               197        4500
##  6 Adelie  Torgersen           46            21.5               194        4200
##  7 Adelie  Dream               39.2          21.1               196        4150
##  8 Adelie  Dream               39.8          19.1               184        4650
##  9 Adelie  Dream               44.1          19.7               196        4400
## 10 Adelie  Dream               39.6          18.8               190        4600
## # … with 164 more rows, and 2 more variables: sex <fct>, year <int>
```
…
